module gitlab.com/t6312/uzzeet-gateway

go 1.12

require (
	github.com/asaskevich/govalidator v0.0.0-20210307081110-f21760c49a8d
	github.com/derekstavis/go-qs v0.0.0-20180720192143-9eef69e6c4e7
	github.com/dgrijalva/jwt-go v3.2.0+incompatible
	github.com/form3tech-oss/jwt-go v3.2.0+incompatible
	github.com/gearintellix/serr v1.1.7 // indirect
	github.com/gearintellix/u2 v1.0.9
	github.com/go-chi/chi v4.0.2+incompatible
	github.com/go-chi/cors v1.2.1
	github.com/go-errors/errors v1.4.0
	github.com/go-redis/redis/v7 v7.0.0-beta.4
	github.com/golang/protobuf v1.5.2
	github.com/joho/godotenv v1.5.1
	github.com/rivo/uniseg v0.2.0
	go.elastic.co/apm/module/apmchi v1.15.0
	go.elastic.co/apm/module/apmgrpc v1.5.0
	golang.org/x/net v0.0.0-20201021035429-f5854403a974 // indirect
	golang.org/x/xerrors v0.0.0-20200804184101-5ec99f83aff1 // indirect
	google.golang.org/genproto v0.0.0-20200526211855-cb27e3aa2013 // indirect
	google.golang.org/grpc v1.27.1
)
